{
    "$schema": "https://go.kicad.org/pcm/schemas/v1",
    "name": "KiCAD Coil Generator",
    "description": "Gereates various types of PCB trace inductors",
    "description_full": "A collection of footprint wizards to generate PCB trace inductors.",
    "identifier": "com.github.SK-Electronics-Consulting.kicad-coil-generators",
    "type": "plugin",
    "author": {
        "name": "SK Electronics Consulting",
        "contact": {
            "web": "https://kazarians.dev"
        }
    },
    "license": "GPL-3.0",
    "resources": {
        "homepage": "https://github.com/SK-Electronics-Consulting/kicad-coil-generators"
    },
    "versions": [
        {
            "version": "1.1.0",
            "status": "stable",
            "kicad_version": "7.0",
            "download_sha256": "952535bef57e34d3d395e51f5764c5441abfb436236aac3d1c61cc6a92575b4d",
            "download_url": "https://github.com/SK-Electronics-Consulting/kicad-coil-generators/releases/download/v1.1.0/kicad-coil-generator-v1_1_0.zip",
            "install_size": 47181,
            "download_size": 13905
        }
    ]
}